<svg xmlns="http://www.w3.org/2000/svg" width="18.79" height="18.79" viewBox="0 0 18.79 18.79">
  <g id="emoji-smile" transform="translate(0.15 0.15)">
    <path id="Path_779" data-name="Path 779" d="M9.245,17.334A8.089,8.089,0,1,0,1.156,9.245,8.089,8.089,0,0,0,9.245,17.334Zm0,1.156A9.245,9.245,0,1,0,0,9.245,9.245,9.245,0,0,0,9.245,18.49Z" fill="#a7a7a7" stroke="#a7a7a7" stroke-width="0.3" fill-rule="evenodd"/>
    <path id="Path_780" data-name="Path 780" d="M9.373,21.454a.59.59,0,0,1,.805.216,4.129,4.129,0,0,0,7.15,0,.589.589,0,1,1,1.021.59,5.308,5.308,0,0,1-9.192,0,.59.59,0,0,1,.216-.805Z" transform="translate(-4.508 -10.448)" fill="#a7a7a7" stroke="#a7a7a7" stroke-width="0.3" fill-rule="evenodd"/>
    <path id="Path_781" data-name="Path 781" d="M13.608,13.019c0,.976-.528,1.769-1.179,1.769s-1.179-.792-1.179-1.769.528-1.769,1.179-1.769S13.608,12.042,13.608,13.019Zm4.716,0c0,.976-.528,1.769-1.179,1.769s-1.179-.792-1.179-1.769.528-1.769,1.179-1.769S18.324,12.042,18.324,13.019Z" transform="translate(-5.542 -5.499)" fill="#a7a7a7" stroke="#a7a7a7" stroke-width="0.3"/>
  </g>
</svg>
