<svg id="fi-rr-calendar" xmlns="http://www.w3.org/2000/svg" width="13.147" height="13.147" viewBox="0 0 13.147 13.147">
  <path id="Path_772" data-name="Path 772" d="M10.408,1.1H9.861V.548a.548.548,0,1,0-1.1,0V1.1H4.382V.548a.548.548,0,1,0-1.1,0V1.1H2.739A2.742,2.742,0,0,0,0,3.835v6.574a2.742,2.742,0,0,0,2.739,2.739h7.669a2.742,2.742,0,0,0,2.739-2.739V3.835A2.742,2.742,0,0,0,10.408,1.1ZM1.1,3.835A1.643,1.643,0,0,1,2.739,2.191h7.669a1.643,1.643,0,0,1,1.643,1.643v.548H1.1Zm9.313,8.217H2.739A1.643,1.643,0,0,1,1.1,10.408V5.478H12.052v4.93A1.643,1.643,0,0,1,10.408,12.052Z" fill="#1da1f2"/>
  <circle id="Ellipse_165" data-name="Ellipse 165" cx="0.822" cy="0.822" r="0.822" transform="translate(5.752 7.395)" fill="#1da1f2"/>
  <circle id="Ellipse_166" data-name="Ellipse 166" cx="0.822" cy="0.822" r="0.822" transform="translate(3.013 7.395)" fill="#1da1f2"/>
  <circle id="Ellipse_167" data-name="Ellipse 167" cx="0.822" cy="0.822" r="0.822" transform="translate(8.491 7.395)" fill="#1da1f2"/>
</svg>
