<svg xmlns="http://www.w3.org/2000/svg" width="23.45" height="23.45" viewBox="0 0 23.45 23.45">
  <g id="user" transform="translate(0.25 0.25)">
    <g id="Group_259" data-name="Group 259" transform="translate(0)">
      <path id="Path_587" data-name="Path 587" d="M19.589,14.836a11.431,11.431,0,0,0-4.36-2.735,6.634,6.634,0,1,0-7.507,0A11.493,11.493,0,0,0,0,22.95H1.793a9.682,9.682,0,1,1,19.364,0H22.95A11.4,11.4,0,0,0,19.589,14.836Zm-8.114-3.361a4.841,4.841,0,1,1,4.841-4.841A4.846,4.846,0,0,1,11.475,11.475Z" transform="translate(0)" fill="#fff" stroke="#fff" stroke-width="0.5"/>
    </g>
  </g>
</svg>
